<?xml version="1.0" encoding="UTF-8" standalone="no"?>
<svg
   xmlns:dc="http://purl.org/dc/elements/1.1/"
   xmlns:cc="http://creativecommons.org/ns#"
   xmlns:rdf="http://www.w3.org/1999/02/22-rdf-syntax-ns#"
   xmlns:svg="http://www.w3.org/2000/svg"
   xmlns="http://www.w3.org/2000/svg"
   xmlns:sodipodi="http://sodipodi.sourceforge.net/DTD/sodipodi-0.dtd"
   xmlns:inkscape="http://www.inkscape.org/namespaces/inkscape"
   viewBox="0 0 48 48"
   id="svg2"
   version="1.1"
   inkscape:version="0.91 r13725"
   sodipodi:docname="deepin-appstore.svg">
  <metadata
     id="metadata51">
    <rdf:RDF>
      <cc:Work
         rdf:about="">
        <dc:format>image/svg+xml</dc:format>
        <dc:type
           rdf:resource="http://purl.org/dc/dcmitype/StillImage" />
      </cc:Work>
    </rdf:RDF>
  </metadata>
  <sodipodi:namedview
     pagecolor="#ffffff"
     bordercolor="#666666"
     borderopacity="1"
     objecttolerance="10"
     gridtolerance="10"
     guidetolerance="10"
     inkscape:pageopacity="0"
     inkscape:pageshadow="2"
     inkscape:window-width="749"
     inkscape:window-height="480"
     id="namedview49"
     showgrid="false"
     inkscape:zoom="4.9166667"
     inkscape:cx="24"
     inkscape:cy="24"
     inkscape:window-x="57"
     inkscape:window-y="31"
     inkscape:window-maximized="0"
     inkscape:current-layer="svg2" />
  <defs
     id="defs4">
    <linearGradient
       x2="13.547"
       x1="0"
       gradientTransform="matrix(0,-3.543307,3.543307,0,-1e-6,48)"
       gradientUnits="userSpaceOnUse"
       id="linearGradient3041">
      <stop
         style="stop-color:#008ef3;stop-opacity:1"
         id="stop7" />
      <stop
         offset="1"
         style="stop-color:#00d4ff;stop-opacity:1"
         id="stop9" />
    </linearGradient>
  </defs>
  <g
     id="g11">
    <path
       d="m 36.31,5 c 5.859,4.062 9.688,10.831 9.688,18.5 0,12.426 -10.07,22.5 -22.5,22.5 -7.669,0 -14.438,-3.828 -18.5,-9.688 1.037,1.822 2.306,3.499 3.781,4.969 4.085,3.712 9.514,5.969 15.469,5.969 12.703,0 23,-10.298 23,-23 0,-5.954 -2.256,-11.384 -5.969,-15.469 C 39.81,7.306 38.132,6.037 36.31,5 z m 4.969,3.781 c 3.854,4.113 6.219,9.637 6.219,15.719 0,12.703 -10.297,23 -23,23 -6.081,0 -11.606,-2.364 -15.719,-6.219 4.16,4.144 9.883,6.719 16.219,6.719 12.703,0 23,-10.298 23,-23 0,-6.335 -2.575,-12.06 -6.719,-16.219 z"
       style="opacity:0.05"
       id="path13" />
    <path
       d="m 41.28 8.781 c 3.712 4.085 5.969 9.514 5.969 15.469 0 12.703 -10.297 23 -23 23 -5.954 0 -11.384 -2.256 -15.469 -5.969 4.113 3.854 9.637 6.219 15.719 6.219 12.703 0 23 -10.298 23 -23 0 -6.081 -2.364 -11.606 -6.219 -15.719 z"
       style="opacity:0.1"
       id="path15" />
    <path
       d="M 31.25,2.375 C 39.865,5.529 46,13.792 46,23.505 c 0,12.426 -10.07,22.5 -22.5,22.5 -9.708,0 -17.971,-6.135 -21.12,-14.75 a 23,23 0 0 0 44.875,-7 23,23 0 0 0 -16,-21.875 z"
       style="opacity:0.2"
       id="path17" />
  </g>
  <path
     d="m 24 1 c -12.703 0 -23 10.297 -23 23 0 12.703 10.297 23 23 23 12.703 0 23 -10.297 23 -23 0 -12.703 -10.297 -23 -23 -23 z"
     style="fill:#e6e6e6;stroke:none;fill-opacity:1"
     id="path19" />
  <g
     id="g21">
    <g
       id="g23">
      <g
         transform="translate(1,1)"
         id="g25">
        <g
           style="opacity:0.1"
           id="g27">
          <!-- color: #f7b754 -->
          <g
             id="g29">
            <path
               d="m 25 11 c -4.144 0 -6.855 2.38 -8.137 5.174 c -1.596 -0.05 -3.192 -0.1 -4.783 -0.174 c -0.586 -0.031 -1.145 0.648 -1.066 1.098 c 1.01 6.68 1.063 12.918 0 19.801 c -0.074 0.453 0.48 1.121 1.066 1.098 l 25.836 0 c 0.598 0.023 1.148 -0.645 1.078 -1.098 c -1.063 -6.879 -1.078 -13.199 0 -19.801 c 0.078 -0.453 -0.48 -1.133 -1.078 -1.098 c -1.598 0.087 -3.185 0.136 -4.773 0.188 c -1.28 -2.8 -3.995 -5.188 -8.143 -5.188 z m 0 1 c 3.2 0 5.576 1.981 6.875 4.236 c -4.613 0.123 -9.19 0.108 -13.74 -0.016 c 1.301 -2.249 3.672 -4.221 6.865 -4.221 z"
               transform="translate(-1,-1)"
               style="fill:#000;fill-opacity:1;stroke:none;fill-rule:nonzero"
               id="path31" />
          </g>
        </g>
      </g>
    </g>
  </g>
  <g
     id="g33">
    <path
       d="m 40.03,7.531 c 3.712,4.084 5.969,9.514 5.969,15.469 0,12.703 -10.297,23 -23,23 C 17.045,46 11.615,43.744 7.53,40.031 11.708,44.322 17.54,47 23.999,47 c 12.703,0 23,-10.298 23,-23 0,-6.462 -2.677,-12.291 -6.969,-16.469 z"
       style="opacity:0.1"
       id="path35" />
  </g>
  <g
     transform="translate(4.8845858e-4,0)"
     id="g37">
    <path
       d="m 11.08 15 c -0.586 -0.031 -1.145 0.648 -1.066 1.098 1.01 6.68 1.063 12.918 0 19.801 -0.074 0.453 0.48 1.121 1.066 1.098 8.617 0 17.227 0 25.836 0 0.598 0.023 1.148 -0.645 1.078 -1.098 -1.063 -6.879 -1.078 -13.199 0 -19.801 0.078 -0.453 -0.48 -1.133 -1.078 -1.098 -8.738 0.473 -17.32 0.395 -25.836 0 m 0 0"
       style="fill:#f8ecde;fill-opacity:1;stroke:none;fill-rule:nonzero"
       id="path39" />
    <path
       d="M 17,19.5 C 17,20.328 16.328,21 15.5,21 14.672,21 14,20.328 14,19.5 14,18.672 14.672,18 15.5,18 c 0.828,0 1.5,0.672 1.5,1.5 m 0,0"
       style="fill:#a9946f;fill-opacity:1;stroke:none;fill-rule:nonzero"
       id="path41" />
    <path
       d="M 34,19.5 C 34,20.328 33.328,21 32.5,21 31.672,21 31,20.328 31,19.5 31,18.672 31.672,18 32.5,18 c 0.828,0 1.5,0.672 1.5,1.5 m 0,0"
       style="fill:#a9946f;fill-opacity:1;stroke:none;fill-rule:nonzero"
       id="path43" />
    <path
       d="M 15.5,20 C 15,20 15,19.422 15,19 c 0,-4.01 3,-9 9,-9 5.996,0 9,4.988 9,9 0,0.422 0,1 -0.5,1 C 32,20 32,19.422 32,19 c 0,-3.168 -3,-8 -8,-8 -5,0 -8,4.832 -8,8 0,0.422 0,1 -0.496,1 m 0,0"
       style="fill:#e5d6be;fill-opacity:1;stroke:none;fill-rule:nonzero"
       id="path45" />
    <path
       d="m 23.574 22 c -0.733 0.02 -0.683 0.149 -0.993 0.776 -0.495 1.016 -0.847 2.482 -0.776 3.346 0.079 0.925 0.326 1.529 0.803 1.984 0.578 0.547 1.28 0.478 1.878 -0.161 0.533 -0.571 0.73 -1.166 0.776 -2.464 0.029 -0.817 0.044 -0.914 0.106 -0.773 0.237 0.542 0.299 1.825 0.132 2.461 -0.138 0.524 -0.475 1.169 -0.75 1.421 -0.36 0.334 -0.75 0.484 -1.286 0.507 -0.358 0.017 -0.501 0.012 -0.773 -0.079 -0.712 -0.237 -1.588 -0.914 -2.089 -1.576 -0.712 -0.949 -1.427 -2.865 -1.609 -4.391 -0.035 -0.296 -0.085 -0.565 -0.106 -0.592 -0.129 -0.149 -0.621 0.466 -0.776 0.967 c -0.103 0.316 -0.109 0.469 -0.109 3.29 l 0 2.98 0.135 0.076 c 0.188 0.123 1.014 0.372 1.688 0.507 0.513 0.106 0.718 0.138 1.928 0.135 1.213 0 1.436 -0.035 1.905 -0.135 0.759 -0.167 1.325 -0.439 1.794 -0.911 0.662 -0.665 0.908 -1.336 0.911 -2.385 0 -0.694 -0.097 -1.248 -0.375 -1.796 -0.1 -0.199 -0.2 -0.36 -0.188 -0.375 0.061 -0.061 0.75 0.765 0.911 1.102 0.99 2.095 0.521 3.802 -1.53 5.514 -0.905 0.75 -2.473 1.793 -3.376 2.247 -0.314 0.161 -0.372 0.22 -0.293 0.296 0.02 0.02 1.582 0.038 3.481 0.026 l 3.454 -0.026 0.296 -0.132 c 0.595 -0.284 0.973 -0.706 1.151 -1.286 0.103 -0.334 0.106 -0.484 0.106 -4.552 c 0 -4.277 -0.009 -4.641 -0.188 -4.711 -0.044 -0.017 -0.446 0.026 -0.885 0.109 -0.486 0.085 -1.175 0.155 -1.77 0.187 -1.034 0.052 -1.559 0.152 -2.169 0.401 -0.566 0.232 -0.896 0.416 -1.207 0.671 -0.275 0.226 -0.314 0.255 -0.401 0.615 -0.12 0.498 -0.2 0.721 -0.401 0.99 -0.146 0.199 -0.296 0.296 -0.293 0.19 0.003 -0.19 0.179 -0.794 0.349 -1.125 0.495 -0.985 1.142 -1.699 2.409 -2.648 0.392 -0.296 0.724 -0.55 0.724 -0.592 0 -0.058 -0.284 -0.079 -1.556 -0.079 -0.452 0 -0.8 -0.006 -1.043 0 m 1.049 2.516 c 0.079 0 0.085 0.082 -0.026 0.882 -0.117 0.85 -0.419 1.523 -0.803 1.927 -0.269 0.287 -0.563 0.363 -0.776 0.214 -0.12 -0.082 -0.266 -0.369 -0.266 -0.507 0 -0.07 0.026 -0.07 0.111 -0.026 0.161 0.088 0.229 0.067 0.422 -0.109 0.331 -0.293 0.68 -1.131 0.861 -2.086 0.015 -0.109 0.329 -0.298 0.481 -0.298 m 0 0"
       style="fill:#12a1dd;fill-opacity:1;stroke:none;fill-rule:nonzero"
       id="path47" />
  </g>
</svg>
