<?xml version="1.0" encoding="UTF-8" standalone="no"?>
<svg
   xmlns:dc="http://purl.org/dc/elements/1.1/"
   xmlns:cc="http://creativecommons.org/ns#"
   xmlns:rdf="http://www.w3.org/1999/02/22-rdf-syntax-ns#"
   xmlns:svg="http://www.w3.org/2000/svg"
   xmlns="http://www.w3.org/2000/svg"
   xmlns:sodipodi="http://sodipodi.sourceforge.net/DTD/sodipodi-0.dtd"
   xmlns:inkscape="http://www.inkscape.org/namespaces/inkscape"
   viewBox="0 0 48 48"
   id="svg2"
   version="1.1"
   inkscape:version="0.91 r13725"
   sodipodi:docname="indicator-weather.svg">
  <metadata
     id="metadata53">
    <rdf:RDF>
      <cc:Work
         rdf:about="">
        <dc:format>image/svg+xml</dc:format>
        <dc:type
           rdf:resource="http://purl.org/dc/dcmitype/StillImage" />
      </cc:Work>
    </rdf:RDF>
  </metadata>
  <sodipodi:namedview
     pagecolor="#ffffff"
     bordercolor="#666666"
     borderopacity="1"
     objecttolerance="10"
     gridtolerance="10"
     guidetolerance="10"
     inkscape:pageopacity="0"
     inkscape:pageshadow="2"
     inkscape:window-width="767"
     inkscape:window-height="480"
     id="namedview51"
     showgrid="false"
     inkscape:zoom="4.9166667"
     inkscape:cx="24"
     inkscape:cy="24"
     inkscape:window-x="57"
     inkscape:window-y="31"
     inkscape:window-maximized="0"
     inkscape:current-layer="g37" />
  <defs
     id="defs4">
    <linearGradient
       id="linearGradient3764"
       x1="1"
       x2="47"
       gradientUnits="userSpaceOnUse"
       gradientTransform="matrix(0,-1,1,0,-1.5e-6,47.999998)">
      <stop
         style="stop-color:#01a0db;stop-opacity:1"
         id="stop7" />
      <stop
         offset="1"
         style="stop-color:#01b1ef;stop-opacity:1"
         id="stop9" />
    </linearGradient>
  </defs>
  <g
     id="g11">
    <path
       d="m 36.31 5 c 5.859 4.062 9.688 10.831 9.688 18.5 c 0 12.426 -10.07 22.5 -22.5 22.5 c -7.669 0 -14.438 -3.828 -18.5 -9.688 c 1.037 1.822 2.306 3.499 3.781 4.969 c 4.085 3.712 9.514 5.969 15.469 5.969 c 12.703 0 23 -10.298 23 -23 c 0 -5.954 -2.256 -11.384 -5.969 -15.469 c -1.469 -1.475 -3.147 -2.744 -4.969 -3.781 z m 4.969 3.781 c 3.854 4.113 6.219 9.637 6.219 15.719 c 0 12.703 -10.297 23 -23 23 c -6.081 0 -11.606 -2.364 -15.719 -6.219 c 4.16 4.144 9.883 6.719 16.219 6.719 c 12.703 0 23 -10.298 23 -23 c 0 -6.335 -2.575 -12.06 -6.719 -16.219 z"
       style="opacity:0.05"
       id="path13" />
    <path
       d="m 41.28 8.781 c 3.712 4.085 5.969 9.514 5.969 15.469 c 0 12.703 -10.297 23 -23 23 c -5.954 0 -11.384 -2.256 -15.469 -5.969 c 4.113 3.854 9.637 6.219 15.719 6.219 c 12.703 0 23 -10.298 23 -23 c 0 -6.081 -2.364 -11.606 -6.219 -15.719 z"
       style="opacity:0.1"
       id="path15" />
    <path
       d="m 31.25 2.375 c 8.615 3.154 14.75 11.417 14.75 21.13 c 0 12.426 -10.07 22.5 -22.5 22.5 c -9.708 0 -17.971 -6.135 -21.12 -14.75 a 23 23 0 0 0 44.875 -7 a 23 23 0 0 0 -16 -21.875 z"
       style="opacity:0.2"
       id="path17" />
  </g>
  <g
     id="g19"
     style="fill:#e6e6e6;fill-opacity:1">
    <path
       d="m 24 1 c 12.703 0 23 10.297 23 23 c 0 12.703 -10.297 23 -23 23 -12.703 0 -23 -10.297 -23 -23 0 -12.703 10.297 -23 23 -23 z"
       style="fill:#e6e6e6;fill-opacity:1"
       id="path21" />
  </g>
  <g
     id="g23">
    <g
       id="g25">
      <g
         transform="translate(1,1)"
         id="g27">
        <g
           style="opacity:0.1"
           id="g29">
          <!-- color: #01b1ef -->
          <g
             id="g31">
            <path
               d="m 22.01 11 l 0.199 5.391 c 0.836 -0.555 1.758 -0.922 2.715 -1.07 l -2.918 -4.32 m 9.793 1.227 l -3.672 3.379 c 0.641 0.219 1.254 0.543 1.82 0.969 c 0.199 0.148 0.395 0.313 0.566 0.477 m -4.613 -0.191 c -1.719 0.023 -3.395 0.883 -4.441 2.492 c -0.098 0.137 -0.176 0.27 -0.242 0.41 c 1.465 0.266 2.746 1.125 3.676 2.305 c 0.352 -0.102 0.727 -0.168 1.121 -0.168 c 2.293 0 4.184 1.992 4.215 4.422 c 0.074 -0.102 0.148 -0.203 0.219 -0.313 c 1.73 -2.641 1.121 -6.27 -1.363 -8.109 c -0.969 -0.719 -2.082 -1.055 -3.18 -1.043 m -10.902 1.516 l 2.563 2 c 0.605 -0.336 1.266 -0.559 1.969 -0.645 c 0.148 -0.371 0.328 -0.734 0.539 -1.082 l -5.07 -0.273 m 17.563 1.887 c 0.281 0.859 0.41 1.777 0.383 2.691 l 4.059 -1.813 m -5.328 5.84 c -0.125 0.188 -0.254 0.367 -0.395 0.535 c 0.676 0.816 1.16 1.813 1.398 2.902 l 1.016 0.594 m -2.02 -4.03"
               style="fill:#000;fill-opacity:1;stroke:none;fill-rule:nonzero"
               id="path33" />
            <path
               d="m 19.336 21 c 1.879 0 3.484 1.063 4.34 2.594 c 0.48 -0.359 1.094 -0.594 1.77 -0.594 c 1.535 0 2.781 1.117 2.781 2.5 c 0 0.309 -0.063 0.602 -0.176 0.875 c 1.742 0.703 2.953 2.289 2.953 4.125 c 0 2.496 -2.23 4.5 -5 4.5 l -10 0 c -2.77 0 -5 -2 -5 -4.5 c 0 -1.973 1.41 -3.641 3.367 -4.25 c 0 -0.082 -0.035 -0.16 -0.035 -0.25 c 0 -2.762 2.238 -5 5 -5 m 0 0"
               style="fill:#000;fill-opacity:1;stroke:none;fill-rule:evenodd"
               id="path35" />
          </g>
        </g>
      </g>
    </g>
  </g>
  <g
     id="g37">
    <g
       id="g39"
       style="stroke:#000000;stroke-opacity:0.42500001;stroke-width:0.1;stroke-miterlimit:4;stroke-dasharray:none">
      <!-- color: #01b1ef -->
      <g
         id="g41"
         style="stroke:#000000;stroke-opacity:0.42500001;stroke-width:0.1;stroke-miterlimit:4;stroke-dasharray:none">
        <path
           d="m 22.01 11 l 0.199 5.391 c 0.836 -0.555 1.758 -0.922 2.715 -1.07 l -2.918 -4.32 m 9.793 1.227 l -3.672 3.379 c 0.641 0.219 1.254 0.543 1.82 0.969 c 0.199 0.148 0.395 0.313 0.566 0.477 m -4.613 -0.191 c -1.719 0.023 -3.395 0.883 -4.441 2.492 c -0.098 0.137 -0.176 0.27 -0.242 0.41 c 1.465 0.266 2.746 1.125 3.676 2.305 c 0.352 -0.102 0.727 -0.168 1.121 -0.168 c 2.293 0 4.184 1.992 4.215 4.422 c 0.074 -0.102 0.148 -0.203 0.219 -0.313 c 1.73 -2.641 1.121 -6.27 -1.363 -8.109 c -0.969 -0.719 -2.082 -1.055 -3.18 -1.043 m -10.902 1.516 l 2.563 2 c 0.605 -0.336 1.266 -0.559 1.969 -0.645 c 0.148 -0.371 0.328 -0.734 0.539 -1.082 l -5.07 -0.273 m 17.563 1.887 c 0.281 0.859 0.41 1.777 0.383 2.691 l 4.059 -1.813 m -5.328 5.84 c -0.125 0.188 -0.254 0.367 -0.395 0.535 c 0.676 0.816 1.16 1.813 1.398 2.902 l 1.016 0.594 m -2.02 -4.03"
           style="fill:#ffc845;fill-opacity:1;stroke:#000000;fill-rule:nonzero;stroke-opacity:0.42500001;stroke-width:0.1;stroke-miterlimit:4;stroke-dasharray:none"
           id="path43" />
        <path
           d="m 19.336 21 c 1.879 0 3.484 1.063 4.34 2.594 c 0.48 -0.359 1.094 -0.594 1.77 -0.594 c 1.535 0 2.781 1.117 2.781 2.5 c 0 0.309 -0.063 0.602 -0.176 0.875 c 1.742 0.703 2.953 2.289 2.953 4.125 c 0 2.496 -2.23 4.5 -5 4.5 l -10 0 c -2.77 0 -5 -2 -5 -4.5 c 0 -1.973 1.41 -3.641 3.367 -4.25 c 0 -0.082 -0.035 -0.16 -0.035 -0.25 c 0 -2.762 2.238 -5 5 -5 m 0 0"
           style="fill:#f9f9f9;fill-opacity:1;stroke:#000000;fill-rule:evenodd;stroke-opacity:0.42500001;stroke-width:0.1;stroke-miterlimit:4;stroke-dasharray:none"
           id="path45" />
      </g>
    </g>
  </g>
  <g
     id="g47">
    <path
       d="m 40.03 7.531 c 3.712 4.084 5.969 9.514 5.969 15.469 0 12.703 -10.297 23 -23 23 c -5.954 0 -11.384 -2.256 -15.469 -5.969 4.178 4.291 10.01 6.969 16.469 6.969 c 12.703 0 23 -10.298 23 -23 0 -6.462 -2.677 -12.291 -6.969 -16.469 z"
       style="opacity:0.1"
       id="path49" />
  </g>
</svg>
