<?xml version="1.0" encoding="UTF-8" standalone="no"?>
<svg
   xmlns:osb="http://www.openswatchbook.org/uri/2009/osb"
   xmlns:dc="http://purl.org/dc/elements/1.1/"
   xmlns:cc="http://creativecommons.org/ns#"
   xmlns:rdf="http://www.w3.org/1999/02/22-rdf-syntax-ns#"
   xmlns:svg="http://www.w3.org/2000/svg"
   xmlns="http://www.w3.org/2000/svg"
   xmlns:sodipodi="http://sodipodi.sourceforge.net/DTD/sodipodi-0.dtd"
   xmlns:inkscape="http://www.inkscape.org/namespaces/inkscape"
   viewBox="0 0 48 48"
   id="svg6584"
   version="1.1"
   inkscape:version="0.91 r13725"
   sodipodi:docname="web-whatsapp.svg">
  <metadata
     id="metadata6611">
    <rdf:RDF>
      <cc:Work
         rdf:about="">
        <dc:format>image/svg+xml</dc:format>
        <dc:type
           rdf:resource="http://purl.org/dc/dcmitype/StillImage" />
        <dc:title></dc:title>
      </cc:Work>
    </rdf:RDF>
  </metadata>
  <sodipodi:namedview
     pagecolor="#ffffff"
     bordercolor="#666666"
     borderopacity="1"
     objecttolerance="10"
     gridtolerance="10"
     guidetolerance="10"
     inkscape:pageopacity="0"
     inkscape:pageshadow="2"
     inkscape:window-width="1863"
     inkscape:window-height="1021"
     id="namedview6609"
     showgrid="false"
     inkscape:zoom="13.906433"
     inkscape:cx="46.126027"
     inkscape:cy="22.101401"
     inkscape:window-x="57"
     inkscape:window-y="31"
     inkscape:window-maximized="1"
     inkscape:current-layer="svg6584"
     showguides="false" />
  <defs
     id="defs6586">
    <linearGradient
       id="linearGradient22455"
       osb:paint="solid">
      <stop
         style="stop-color:#000000;stop-opacity:0.37128714;"
         offset="0"
         id="stop22457" />
    </linearGradient>
    <linearGradient
       id="linearGradient3764"
       y1="47"
       x2="0"
       y2="1"
       gradientUnits="userSpaceOnUse">
      <stop
         style="stop-color:#67ac5e;stop-opacity:1"
         id="stop6589" />
      <stop
         offset="1"
         style="stop-color:#74b36b;stop-opacity:1"
         id="stop6591" />
    </linearGradient>
  </defs>
  <path
     d="m 36.31,5 c 5.859,4.062 9.688,10.831 9.688,18.5 0,12.426 -10.07,22.5 -22.5,22.5 -7.669,0 -14.438,-3.828 -18.5,-9.688 1.037,1.822 2.306,3.499 3.781,4.969 4.085,3.712 9.514,5.969 15.469,5.969 12.703,0 23,-10.298 23,-23 0,-5.954 -2.256,-11.384 -5.969,-15.469 C 39.81,7.306 38.132,6.037 36.31,5 Z m 4.969,3.781 c 3.854,4.113 6.219,9.637 6.219,15.719 0,12.703 -10.297,23 -23,23 -6.081,0 -11.606,-2.364 -15.719,-6.219 4.16,4.144 9.883,6.719 16.219,6.719 12.703,0 23,-10.298 23,-23 0,-6.335 -2.575,-12.06 -6.719,-16.219 z"
     style="opacity:0.05"
     id="path6593" />
  <path
     d="m 41.28 8.781 c 3.712 4.085 5.969 9.514 5.969 15.469 0 12.703 -10.297 23 -23 23 -5.954 0 -11.384 -2.256 -15.469 -5.969 4.113 3.854 9.637 6.219 15.719 6.219 12.703 0 23 -10.298 23 -23 0 -6.081 -2.364 -11.606 -6.219 -15.719 z"
     style="opacity:0.1"
     id="path6595" />
  <path
     d="M 31.25,2.375 C 39.865,5.529 46,13.792 46,23.505 c 0,12.426 -10.07,22.5 -22.5,22.5 -9.708,0 -17.971,-6.135 -21.12,-14.75 a 23,23 0 0 0 44.875,-7 23,23 0 0 0 -16,-21.875 z"
     style="opacity:0.2"
     id="path6597" />
  <path
     d="M 24,1 C 36.703,1 47,11.297 47,24 47,36.703 36.703,47 24,47 11.297,47 1,36.703 1,24 1,11.297 11.297,1 24,1 Z"
     style="fill:#ececec;fill-opacity:1"
     id="path6599" />
  <path
     d="m 40.03,7.531 c 3.712,4.084 5.969,9.514 5.969,15.469 0,12.703 -10.297,23 -23,23 C 17.045,46 11.615,43.744 7.53,40.031 11.708,44.322 17.54,47 23.999,47 c 12.703,0 23,-10.298 23,-23 0,-6.462 -2.677,-12.291 -6.969,-16.469 z"
     style="opacity:0.1"
     id="path6607" />
  <style
     id="style4201"
     type="text/css">
	.st0{fill:#FEFEFE;}
	.st1{fill:#25AE0F;}
</style>
  <g
     id="#00a9ffff"
     transform="matrix(0.14126974,0,0,0.13508145,10.220259,9.5880366)"
     style="fill:#40b940;fill-opacity:0.70422536">
    <path
       id="path4197"
       d="m 46.36,1.69 c 3.98,-1.21 8.19,0.27 11.44,2.61 6.38,5.1 10.6,12.22 14.92,19 4.88,7.69 10.05,16.1 9.65,25.55 -0.42,6.79 -5.31,12.02 -10.4,15.98 -5.31,5.28 -14.26,8.48 -14.83,17.06 -0.45,11.36 6.81,21.03 13.09,29.83 8.53,10.77 17.54,21.45 28.8,29.49 5.5,3.82 12.1,7.26 19.01,5.85 6.02,-1.7 9.36,-7.32 13.97,-11.07 4.14,-3.5 8.23,-7.74 13.87,-8.56 9.47,-1.75 17.97,4.2 24.97,9.79 6.91,6.04 14.55,11.55 19.62,19.35 2.4,3.83 3.46,8.94 1.34,13.14 -2.27,4.58 -6.68,7.46 -10.34,10.84 -9.67,9.86 -22.79,16.4 -36.57,17.78 -15.52,1.93 -31.14,-2.5 -44.9,-9.49 C 78.99,177.59 61.56,160.8 46.36,142.67 32.88,126.59 20.74,108.93 13.83,88.97 9.52,76.92 8.04,63.89 9.56,51.19 11.57,37.1 18.5,23.67 29.21,14.26 34.98,10.16 39.42,3.89 46.36,1.69 Z"
       inkscape:connector-curvature="0"
       style="opacity:1;fill:#40b940;fill-opacity:0.70422536;stroke:#00a9ff;stroke-width:0.09375" />
  </g>
</svg>
